This file contains any messages produced by compilers while
running configure, to aid debugging if configure makes a mistake.

It was created by configure, which was
generated by GNU Autoconf 2.59.  Invocation command line was

  $ ./configure 

## --------- ##
## Platform. ##
## --------- ##

hostname = TheVaio
uname -m = i686
uname -r = 1.5.18(0.132/4/2)
uname -s = CYGWIN_NT-5.1
uname -v = 2005-07-02 20:30

/usr/bin/uname -p = unknown
/bin/uname -X     = unknown

/bin/arch              = unknown
/usr/bin/arch -k       = unknown
/usr/convex/getsysinfo = unknown
hostinfo               = unknown
/bin/machine           = unknown
/usr/bin/oslevel       = unknown
/bin/universe          = unknown

PATH: /usr/local/bin
PATH: /usr/bin
PATH: /bin
PATH: /usr/X11R6/bin
PATH: /cygdrive/c/Program Files/Microsoft Xbox SDK/Xbox/Bin
PATH: /cygdrive/c/WINDOWS/Microsoft.NET/Framework/v1.1.4322/
PATH: /cygdrive/c/Program Files/Borland/BDS/4.0/Bin
PATH: /cygdrive/c/Program Files/Alias/Maya7.0/bin
PATH: /cygdrive/c/Program Files/Microsoft DirectX 9.0 SDK (October 2005)/Utilities/Bin/x86
PATH: /cygdrive/c/WINDOWS/system32
PATH: /cygdrive/c/WINDOWS
PATH: /cygdrive/c/WINDOWS/System32/Wbem
PATH: /cygdrive/c/Program Files/ATI Technologies/ATI Control Panel
PATH: /cygdrive/c/Program Files/MySQL/MySQL Server 5.0/bin
PATH: /cygdrive/c/Program Files/Microsoft SQL Server/90/Tools/binn/
PATH: /cygdrive/c/Program Files/Borland/CaliberRM SDK 2005 R2/lib
PATH: /cygdrive/c/Program Files/Intel/Compiler/Fortran/9.0/IA32/Bin
PATH: /cygdrive/c/Program Files/Intel/Compiler/C++/9.0/IA32/Bin
PATH: /cygdrive/c/Program Files/ATI Technologies/ATI.ACE/
PATH: /cygdrive/c/Program Files/Common Files/Adobe/AGL
PATH: /cygdrive/c/Documents and Settings/Jared/My Documents/Borland Studio Projects/Bpl
PATH: /usr/lib/lapack


## ----------- ##
## Core tests. ##
## ----------- ##

configure:1539: checking for a BSD-compatible install
configure:1594: result: /usr/bin/install -c
configure:1605: checking whether build environment is sane
configure:1648: result: yes
configure:1672: WARNING: `missing' script is too old or missing
configure:1713: checking for gawk
configure:1729: found /usr/bin/gawk
configure:1739: result: gawk
configure:1749: checking whether make sets $(MAKE)
configure:1769: result: yes
configure:1990: checking for gcc
configure:2006: found /usr/bin/gcc
configure:2016: result: gcc
configure:2260: checking for C compiler version
configure:2263: gcc --version </dev/null >&5
gcc (GCC) 3.4.4 (cygming special) (gdc 0.12, using dmd 0.125)
Copyright (C) 2004 Free Software Foundation, Inc.
This is free software; see the source for copying conditions.  There is NO
warranty; not even for MERCHANTABILITY or FITNESS FOR A PARTICULAR PURPOSE.

configure:2266: $? = 0
configure:2268: gcc -v </dev/null >&5
Reading specs from /usr/lib/gcc/i686-pc-cygwin/3.4.4/specs
Configured with: /gcc/gcc-3.4.4/gcc-3.4.4-1/configure --verbose --prefix=/usr --exec-prefix=/usr --sysconfdir=/etc --libdir=/usr/lib --libexecdir=/usr/lib --mandir=/usr/share/man --infodir=/usr/share/info --enable-languages=c,ada,c++,d,f77,java,objc --enable-nls --without-included-gettext --enable-version-specific-runtime-libs --without-x --enable-libgcj --disable-java-awt --with-system-zlib --enable-interpreter --disable-libgcj-debug --enable-threads=posix --enable-java-gc=boehm --disable-win32-registry --enable-sjlj-exceptions --enable-hash-synchronization --enable-libstdcxx-debug : (reconfigured) 
Thread model: posix
gcc version 3.4.4 (cygming special) (gdc 0.12, using dmd 0.125)
configure:2271: $? = 0
configure:2273: gcc -V </dev/null >&5
gcc: `-V' option must have argument
configure:2276: $? = 1
configure:2299: checking for C compiler default output file name
configure:2302: gcc  -I/usr/local/include/SDL -Dmain=SDL_main -I/usr/include/mingw -DWIN32 -Uunix -mno-cygwin -lmxf -L/usr/local/lib -lmingw32 -lSDLmain -lSDL -mwindows -mno-cygwin conftest.c  >&5
configure:2305: $? = 0
configure:2351: result: a.exe
configure:2356: checking whether the C compiler works
configure:2362: ./a.exe
configure:2365: $? = 0
configure:2382: result: yes
configure:2389: checking whether we are cross compiling
configure:2391: result: no
configure:2394: checking for suffix of executables
configure:2396: gcc -o conftest.exe  -I/usr/local/include/SDL -Dmain=SDL_main -I/usr/include/mingw -DWIN32 -Uunix -mno-cygwin -lmxf -L/usr/local/lib -lmingw32 -lSDLmain -lSDL -mwindows -mno-cygwin conftest.c  >&5
configure:2399: $? = 0
configure:2424: result: .exe
configure:2430: checking for suffix of object files
configure:2451: gcc -c  -I/usr/local/include/SDL -Dmain=SDL_main -I/usr/include/mingw -DWIN32 -Uunix -mno-cygwin conftest.c >&5
configure:2454: $? = 0
configure:2476: result: o
configure:2480: checking whether we are using the GNU C compiler
configure:2504: gcc -c  -I/usr/local/include/SDL -Dmain=SDL_main -I/usr/include/mingw -DWIN32 -Uunix -mno-cygwin conftest.c >&5
configure:2510: $? = 0
configure:2513: test -z 			 || test ! -s conftest.err
configure:2516: $? = 0
configure:2519: test -s conftest.o
configure:2522: $? = 0
configure:2535: result: yes
configure:2541: checking whether gcc accepts -g
configure:2562: gcc -c -g -I/usr/local/include/SDL -Dmain=SDL_main -I/usr/include/mingw -DWIN32 -Uunix -mno-cygwin conftest.c >&5
configure:2568: $? = 0
configure:2571: test -z 			 || test ! -s conftest.err
configure:2574: $? = 0
configure:2577: test -s conftest.o
configure:2580: $? = 0
configure:2591: result: yes
configure:2608: checking for gcc option to accept ANSI C
configure:2678: gcc  -c -g -O2 -I/usr/local/include/SDL -Dmain=SDL_main -I/usr/include/mingw -DWIN32 -Uunix -mno-cygwin conftest.c >&5
configure:2684: $? = 0
configure:2687: test -z 			 || test ! -s conftest.err
configure:2690: $? = 0
configure:2693: test -s conftest.o
configure:2696: $? = 0
configure:2714: result: none needed
configure:2732: gcc -c -g -O2 -I/usr/local/include/SDL -Dmain=SDL_main -I/usr/include/mingw -DWIN32 -Uunix -mno-cygwin conftest.c >&5
conftest.c:2: error: parse error before "me"
configure:2738: $? = 1
configure: failed program was:
| #ifndef __cplusplus
|   choke me
| #endif
configure:2879: checking for style of include used by make
configure:2907: result: GNU
configure:2935: checking dependency style of gcc
configure:3025: result: gcc3
configure:3120: checking build system type
configure:3138: result: i686-pc-cygwin
configure:3146: checking host system type
configure:3160: result: i686-pc-cygwin
configure:3168: checking for a sed that does not truncate output
configure:3222: result: /usr/bin/sed
configure:3225: checking for egrep
configure:3235: result: grep -E
configure:3251: checking for ld used by gcc
configure:3318: result: /usr/i686-pc-cygwin/bin/ld.exe
configure:3327: checking if the linker (/usr/i686-pc-cygwin/bin/ld.exe) is GNU ld
configure:3342: result: yes
configure:3347: checking for /usr/i686-pc-cygwin/bin/ld.exe option to reload object files
configure:3354: result: -r
configure:3363: checking for BSD-compatible nm
configure:3405: result: /usr/bin/nm -B
configure:3409: checking whether ln -s works
configure:3413: result: yes
configure:3420: checking how to recognise dependent libraries
configure:3594: result: file_magic ^x86 archive import|^x86 DLL
configure:3807: checking how to run the C preprocessor
configure:3842: gcc -E -I/usr/local/include/SDL -Dmain=SDL_main -I/usr/include/mingw -DWIN32 -Uunix -mno-cygwin conftest.c
configure:3848: $? = 0
configure:3880: gcc -E -I/usr/local/include/SDL -Dmain=SDL_main -I/usr/include/mingw -DWIN32 -Uunix -mno-cygwin conftest.c
conftest.c:11:28: ac_nonexistent.h: No such file or directory
configure:3886: $? = 1
configure: failed program was:
| /* confdefs.h.  */
| 
| #define PACKAGE_NAME ""
| #define PACKAGE_TARNAME ""
| #define PACKAGE_VERSION ""
| #define PACKAGE_STRING ""
| #define PACKAGE_BUGREPORT ""
| #define PACKAGE "lostalgo"
| #define VERSION "0.1"
| /* end confdefs.h.  */
| #include <ac_nonexistent.h>
configure:3925: result: gcc -E
configure:3949: gcc -E -I/usr/local/include/SDL -Dmain=SDL_main -I/usr/include/mingw -DWIN32 -Uunix -mno-cygwin conftest.c
configure:3955: $? = 0
configure:3987: gcc -E -I/usr/local/include/SDL -Dmain=SDL_main -I/usr/include/mingw -DWIN32 -Uunix -mno-cygwin conftest.c
conftest.c:11:28: ac_nonexistent.h: No such file or directory
configure:3993: $? = 1
configure: failed program was:
| /* confdefs.h.  */
| 
| #define PACKAGE_NAME ""
| #define PACKAGE_TARNAME ""
| #define PACKAGE_VERSION ""
| #define PACKAGE_STRING ""
| #define PACKAGE_BUGREPORT ""
| #define PACKAGE "lostalgo"
| #define VERSION "0.1"
| /* end confdefs.h.  */
| #include <ac_nonexistent.h>
configure:4037: checking for ANSI C header files
configure:4062: gcc -c -g -O2 -I/usr/local/include/SDL -Dmain=SDL_main -I/usr/include/mingw -DWIN32 -Uunix -mno-cygwin conftest.c >&5
configure:4068: $? = 0
configure:4071: test -z 			 || test ! -s conftest.err
configure:4074: $? = 0
configure:4077: test -s conftest.o
configure:4080: $? = 0
configure:4169: gcc -o conftest.exe -g -O2 -I/usr/local/include/SDL -Dmain=SDL_main -I/usr/include/mingw -DWIN32 -Uunix -mno-cygwin -lmxf -L/usr/local/lib -lmingw32 -lSDLmain -lSDL -mwindows -mno-cygwin conftest.c  >&5
configure:4172: $? = 0
configure:4174: ./conftest.exe
configure:4177: $? = 0
configure:4192: result: yes
configure:4216: checking for sys/types.h
configure:4232: gcc -c -g -O2 -I/usr/local/include/SDL -Dmain=SDL_main -I/usr/include/mingw -DWIN32 -Uunix -mno-cygwin conftest.c >&5
configure:4238: $? = 0
configure:4241: test -z 			 || test ! -s conftest.err
configure:4244: $? = 0
configure:4247: test -s conftest.o
configure:4250: $? = 0
configure:4261: result: yes
configure:4216: checking for sys/stat.h
configure:4232: gcc -c -g -O2 -I/usr/local/include/SDL -Dmain=SDL_main -I/usr/include/mingw -DWIN32 -Uunix -mno-cygwin conftest.c >&5
configure:4238: $? = 0
configure:4241: test -z 			 || test ! -s conftest.err
configure:4244: $? = 0
configure:4247: test -s conftest.o
configure:4250: $? = 0
configure:4261: result: yes
configure:4216: checking for stdlib.h
configure:4232: gcc -c -g -O2 -I/usr/local/include/SDL -Dmain=SDL_main -I/usr/include/mingw -DWIN32 -Uunix -mno-cygwin conftest.c >&5
configure:4238: $? = 0
configure:4241: test -z 			 || test ! -s conftest.err
configure:4244: $? = 0
configure:4247: test -s conftest.o
configure:4250: $? = 0
configure:4261: result: yes
configure:4216: checking for string.h
configure:4232: gcc -c -g -O2 -I/usr/local/include/SDL -Dmain=SDL_main -I/usr/include/mingw -DWIN32 -Uunix -mno-cygwin conftest.c >&5
configure:4238: $? = 0
configure:4241: test -z 			 || test ! -s conftest.err
configure:4244: $? = 0
configure:4247: test -s conftest.o
configure:4250: $? = 0
configure:4261: result: yes
configure:4216: checking for memory.h
configure:4232: gcc -c -g -O2 -I/usr/local/include/SDL -Dmain=SDL_main -I/usr/include/mingw -DWIN32 -Uunix -mno-cygwin conftest.c >&5
configure:4238: $? = 0
configure:4241: test -z 			 || test ! -s conftest.err
configure:4244: $? = 0
configure:4247: test -s conftest.o
configure:4250: $? = 0
configure:4261: result: yes
configure:4216: checking for strings.h
configure:4232: gcc -c -g -O2 -I/usr/local/include/SDL -Dmain=SDL_main -I/usr/include/mingw -DWIN32 -Uunix -mno-cygwin conftest.c >&5
configure:4238: $? = 0
configure:4241: test -z 			 || test ! -s conftest.err
configure:4244: $? = 0
configure:4247: test -s conftest.o
configure:4250: $? = 0
configure:4261: result: yes
configure:4216: checking for inttypes.h
configure:4232: gcc -c -g -O2 -I/usr/local/include/SDL -Dmain=SDL_main -I/usr/include/mingw -DWIN32 -Uunix -mno-cygwin conftest.c >&5
configure:4238: $? = 0
configure:4241: test -z 			 || test ! -s conftest.err
configure:4244: $? = 0
configure:4247: test -s conftest.o
configure:4250: $? = 0
configure:4261: result: yes
configure:4216: checking for stdint.h
configure:4232: gcc -c -g -O2 -I/usr/local/include/SDL -Dmain=SDL_main -I/usr/include/mingw -DWIN32 -Uunix -mno-cygwin conftest.c >&5
configure:4238: $? = 0
configure:4241: test -z 			 || test ! -s conftest.err
configure:4244: $? = 0
configure:4247: test -s conftest.o
configure:4250: $? = 0
configure:4261: result: yes
configure:4216: checking for unistd.h
configure:4232: gcc -c -g -O2 -I/usr/local/include/SDL -Dmain=SDL_main -I/usr/include/mingw -DWIN32 -Uunix -mno-cygwin conftest.c >&5
configure:4238: $? = 0
configure:4241: test -z 			 || test ! -s conftest.err
configure:4244: $? = 0
configure:4247: test -s conftest.o
configure:4250: $? = 0
configure:4261: result: yes
configure:4287: checking dlfcn.h usability
configure:4299: gcc -c -g -O2 -I/usr/local/include/SDL -Dmain=SDL_main -I/usr/include/mingw -DWIN32 -Uunix -mno-cygwin conftest.c >&5
conftest.c:55:19: dlfcn.h: No such file or directory
configure:4305: $? = 1
configure: failed program was:
| /* confdefs.h.  */
| 
| #define PACKAGE_NAME ""
| #define PACKAGE_TARNAME ""
| #define PACKAGE_VERSION ""
| #define PACKAGE_STRING ""
| #define PACKAGE_BUGREPORT ""
| #define PACKAGE "lostalgo"
| #define VERSION "0.1"
| #define STDC_HEADERS 1
| #define HAVE_SYS_TYPES_H 1
| #define HAVE_SYS_STAT_H 1
| #define HAVE_STDLIB_H 1
| #define HAVE_STRING_H 1
| #define HAVE_MEMORY_H 1
| #define HAVE_STRINGS_H 1
| #define HAVE_INTTYPES_H 1
| #define HAVE_STDINT_H 1
| #define HAVE_UNISTD_H 1
| /* end confdefs.h.  */
| #include <stdio.h>
| #if HAVE_SYS_TYPES_H
| # include <sys/types.h>
| #endif
| #if HAVE_SYS_STAT_H
| # include <sys/stat.h>
| #endif
| #if STDC_HEADERS
| # include <stdlib.h>
| # include <stddef.h>
| #else
| # if HAVE_STDLIB_H
| #  include <stdlib.h>
| # endif
| #endif
| #if HAVE_STRING_H
| # if !STDC_HEADERS && HAVE_MEMORY_H
| #  include <memory.h>
| # endif
| # include <string.h>
| #endif
| #if HAVE_STRINGS_H
| # include <strings.h>
| #endif
| #if HAVE_INTTYPES_H
| # include <inttypes.h>
| #else
| # if HAVE_STDINT_H
| #  include <stdint.h>
| # endif
| #endif
| #if HAVE_UNISTD_H
| # include <unistd.h>
| #endif
| #include <dlfcn.h>
configure:4327: result: no
configure:4331: checking dlfcn.h presence
configure:4341: gcc -E -I/usr/local/include/SDL -Dmain=SDL_main -I/usr/include/mingw -DWIN32 -Uunix -mno-cygwin conftest.c
conftest.c:21:19: dlfcn.h: No such file or directory
configure:4347: $? = 1
configure: failed program was:
| /* confdefs.h.  */
| 
| #define PACKAGE_NAME ""
| #define PACKAGE_TARNAME ""
| #define PACKAGE_VERSION ""
| #define PACKAGE_STRING ""
| #define PACKAGE_BUGREPORT ""
| #define PACKAGE "lostalgo"
| #define VERSION "0.1"
| #define STDC_HEADERS 1
| #define HAVE_SYS_TYPES_H 1
| #define HAVE_SYS_STAT_H 1
| #define HAVE_STDLIB_H 1
| #define HAVE_STRING_H 1
| #define HAVE_MEMORY_H 1
| #define HAVE_STRINGS_H 1
| #define HAVE_INTTYPES_H 1
| #define HAVE_STDINT_H 1
| #define HAVE_UNISTD_H 1
| /* end confdefs.h.  */
| #include <dlfcn.h>
configure:4367: result: no
configure:4402: checking for dlfcn.h
configure:4409: result: no
configure:4474: checking for g++
configure:4490: found /usr/bin/g++
configure:4500: result: g++
configure:4516: checking for C++ compiler version
configure:4519: g++ --version </dev/null >&5
g++ (GCC) 3.4.4 (cygming special) (gdc 0.12, using dmd 0.125)
Copyright (C) 2004 Free Software Foundation, Inc.
This is free software; see the source for copying conditions.  There is NO
warranty; not even for MERCHANTABILITY or FITNESS FOR A PARTICULAR PURPOSE.

configure:4522: $? = 0
configure:4524: g++ -v </dev/null >&5
Reading specs from /usr/lib/gcc/i686-pc-cygwin/3.4.4/specs
Configured with: /gcc/gcc-3.4.4/gcc-3.4.4-1/configure --verbose --prefix=/usr --exec-prefix=/usr --sysconfdir=/etc --libdir=/usr/lib --libexecdir=/usr/lib --mandir=/usr/share/man --infodir=/usr/share/info --enable-languages=c,ada,c++,d,f77,java,objc --enable-nls --without-included-gettext --enable-version-specific-runtime-libs --without-x --enable-libgcj --disable-java-awt --with-system-zlib --enable-interpreter --disable-libgcj-debug --enable-threads=posix --enable-java-gc=boehm --disable-win32-registry --enable-sjlj-exceptions --enable-hash-synchronization --enable-libstdcxx-debug : (reconfigured) 
Thread model: posix
gcc version 3.4.4 (cygming special) (gdc 0.12, using dmd 0.125)
configure:4527: $? = 0
configure:4529: g++ -V </dev/null >&5
g++: `-V' option must have argument
configure:4532: $? = 1
configure:4535: checking whether we are using the GNU C++ compiler
configure:4559: g++ -c  -I/usr/local/include/SDL -Dmain=SDL_main -I/usr/include/mingw -DWIN32 -Uunix -mno-cygwin conftest.cc >&5
configure:4565: $? = 0
configure:4568: test -z 			 || test ! -s conftest.err
configure:4571: $? = 0
configure:4574: test -s conftest.o
configure:4577: $? = 0
configure:4590: result: yes
configure:4596: checking whether g++ accepts -g
configure:4617: g++ -c -g -I/usr/local/include/SDL -Dmain=SDL_main -I/usr/include/mingw -DWIN32 -Uunix -mno-cygwin conftest.cc >&5
configure:4623: $? = 0
configure:4626: test -z 			 || test ! -s conftest.err
configure:4629: $? = 0
configure:4632: test -s conftest.o
configure:4635: $? = 0
configure:4646: result: yes
configure:4688: g++ -c -g -O2 -I/usr/local/include/SDL -Dmain=SDL_main -I/usr/include/mingw -DWIN32 -Uunix -mno-cygwin conftest.cc >&5
configure:4694: $? = 0
configure:4697: test -z 			 || test ! -s conftest.err
configure:4700: $? = 0
configure:4703: test -s conftest.o
configure:4706: $? = 0
configure:4732: g++ -c -g -O2 -I/usr/local/include/SDL -Dmain=SDL_main -I/usr/include/mingw -DWIN32 -Uunix -mno-cygwin conftest.cc >&5
conftest.cc: In function `int SDL_main()':
conftest.cc:25: error: `exit' undeclared (first use this function)
conftest.cc:25: error: (Each undeclared identifier is reported only once for each function it appears in.)
configure:4738: $? = 1
configure: failed program was:
| /* confdefs.h.  */
| 
| #define PACKAGE_NAME ""
| #define PACKAGE_TARNAME ""
| #define PACKAGE_VERSION ""
| #define PACKAGE_STRING ""
| #define PACKAGE_BUGREPORT ""
| #define PACKAGE "lostalgo"
| #define VERSION "0.1"
| #define STDC_HEADERS 1
| #define HAVE_SYS_TYPES_H 1
| #define HAVE_SYS_STAT_H 1
| #define HAVE_STDLIB_H 1
| #define HAVE_STRING_H 1
| #define HAVE_MEMORY_H 1
| #define HAVE_STRINGS_H 1
| #define HAVE_INTTYPES_H 1
| #define HAVE_STDINT_H 1
| #define HAVE_UNISTD_H 1
| /* end confdefs.h.  */
| 
| int
| main ()
| {
| exit (42);
|   ;
|   return 0;
| }
configure:4688: g++ -c -g -O2 -I/usr/local/include/SDL -Dmain=SDL_main -I/usr/include/mingw -DWIN32 -Uunix -mno-cygwin conftest.cc >&5
configure:4694: $? = 0
configure:4697: test -z 			 || test ! -s conftest.err
configure:4700: $? = 0
configure:4703: test -s conftest.o
configure:4706: $? = 0
configure:4732: g++ -c -g -O2 -I/usr/local/include/SDL -Dmain=SDL_main -I/usr/include/mingw -DWIN32 -Uunix -mno-cygwin conftest.cc >&5
configure:4738: $? = 0
configure:4741: test -z 			 || test ! -s conftest.err
configure:4744: $? = 0
configure:4747: test -s conftest.o
configure:4750: $? = 0
configure:4775: checking dependency style of g++
configure:4865: result: gcc3
configure:4887: checking how to run the C++ preprocessor
configure:4918: g++ -E -I/usr/local/include/SDL -Dmain=SDL_main -I/usr/include/mingw -DWIN32 -Uunix -mno-cygwin conftest.cc
configure:4924: $? = 0
configure:4956: g++ -E -I/usr/local/include/SDL -Dmain=SDL_main -I/usr/include/mingw -DWIN32 -Uunix -mno-cygwin conftest.cc
conftest.cc:24:28: ac_nonexistent.h: No such file or directory
configure:4962: $? = 1
configure: failed program was:
| /* confdefs.h.  */
| 
| #define PACKAGE_NAME ""
| #define PACKAGE_TARNAME ""
| #define PACKAGE_VERSION ""
| #define PACKAGE_STRING ""
| #define PACKAGE_BUGREPORT ""
| #define PACKAGE "lostalgo"
| #define VERSION "0.1"
| #define STDC_HEADERS 1
| #define HAVE_SYS_TYPES_H 1
| #define HAVE_SYS_STAT_H 1
| #define HAVE_STDLIB_H 1
| #define HAVE_STRING_H 1
| #define HAVE_MEMORY_H 1
| #define HAVE_STRINGS_H 1
| #define HAVE_INTTYPES_H 1
| #define HAVE_STDINT_H 1
| #define HAVE_UNISTD_H 1
| #ifdef __cplusplus
| extern "C" void std::exit (int) throw (); using std::exit;
| #endif
| /* end confdefs.h.  */
| #include <ac_nonexistent.h>
configure:5001: result: g++ -E
configure:5025: g++ -E -I/usr/local/include/SDL -Dmain=SDL_main -I/usr/include/mingw -DWIN32 -Uunix -mno-cygwin conftest.cc
configure:5031: $? = 0
configure:5063: g++ -E -I/usr/local/include/SDL -Dmain=SDL_main -I/usr/include/mingw -DWIN32 -Uunix -mno-cygwin conftest.cc
conftest.cc:24:28: ac_nonexistent.h: No such file or directory
configure:5069: $? = 1
configure: failed program was:
| /* confdefs.h.  */
| 
| #define PACKAGE_NAME ""
| #define PACKAGE_TARNAME ""
| #define PACKAGE_VERSION ""
| #define PACKAGE_STRING ""
| #define PACKAGE_BUGREPORT ""
| #define PACKAGE "lostalgo"
| #define VERSION "0.1"
| #define STDC_HEADERS 1
| #define HAVE_SYS_TYPES_H 1
| #define HAVE_SYS_STAT_H 1
| #define HAVE_STDLIB_H 1
| #define HAVE_STRING_H 1
| #define HAVE_MEMORY_H 1
| #define HAVE_STRINGS_H 1
| #define HAVE_INTTYPES_H 1
| #define HAVE_STDINT_H 1
| #define HAVE_UNISTD_H 1
| #ifdef __cplusplus
| extern "C" void std::exit (int) throw (); using std::exit;
| #endif
| /* end confdefs.h.  */
| #include <ac_nonexistent.h>
configure:5164: checking for g77
configure:5180: found /usr/bin/g77
configure:5190: result: g77
configure:5205: checking for Fortran 77 compiler version
configure:5208: g77 --version </dev/null >&5
GNU Fortran (GCC) 3.4.4 (cygming special) (gdc 0.12, using dmd 0.125)
Copyright (C) 2004 Free Software Foundation, Inc.

GNU Fortran comes with NO WARRANTY, to the extent permitted by law.
You may redistribute copies of GNU Fortran
under the terms of the GNU General Public License.
For more information about these matters, see the file named COPYING
or type the command `info -f g77 Copying'.
configure:5211: $? = 0
configure:5213: g77 -v </dev/null >&5
Reading specs from /usr/lib/gcc/i686-pc-cygwin/3.4.4/specs
Configured with: /gcc/gcc-3.4.4/gcc-3.4.4-1/configure --verbose --prefix=/usr --exec-prefix=/usr --sysconfdir=/etc --libdir=/usr/lib --libexecdir=/usr/lib --mandir=/usr/share/man --infodir=/usr/share/info --enable-languages=c,ada,c++,d,f77,java,objc --enable-nls --without-included-gettext --enable-version-specific-runtime-libs --without-x --enable-libgcj --disable-java-awt --with-system-zlib --enable-interpreter --disable-libgcj-debug --enable-threads=posix --enable-java-gc=boehm --disable-win32-registry --enable-sjlj-exceptions --enable-hash-synchronization --enable-libstdcxx-debug : (reconfigured) 
Thread model: posix
gcc version 3.4.4 (cygming special) (gdc 0.12, using dmd 0.125)
configure:5216: $? = 0
configure:5218: g77 -V </dev/null >&5
g77: `-V' option must have argument
configure:5221: $? = 1
configure:5229: checking whether we are using the GNU Fortran 77 compiler
configure:5243: g77 -c  conftest.F >&5
configure:5249: $? = 0
configure:5252: test -z 			 || test ! -s conftest.err
configure:5255: $? = 0
configure:5258: test -s conftest.o
configure:5261: $? = 0
configure:5274: result: yes
configure:5280: checking whether g77 accepts -g
configure:5292: g77 -c -g conftest.f >&5
configure:5298: $? = 0
configure:5301: test -z 			 || test ! -s conftest.err
configure:5304: $? = 0
configure:5307: test -s conftest.o
configure:5310: $? = 0
configure:5322: result: yes
configure:5352: checking the maximum length of command line arguments
configure:5417: result: 8192
configure:5428: checking command to parse /usr/bin/nm -B output from gcc object
configure:5517: gcc -c -g -O2 -I/usr/local/include/SDL -Dmain=SDL_main -I/usr/include/mingw -DWIN32 -Uunix -mno-cygwin conftest.c >&5
configure:5520: $? = 0
configure:5524: /usr/bin/nm -B conftest.o \| sed -n -e 's/^.*[ 	]\([ABCDGIRSTW][ABCDGIRSTW]*\)[ 	][ 	]*\(\)\([_A-Za-z][_A-Za-z0-9]*\)$/\1 \2\3 \3/p' \> conftest.nm
configure:5527: $? = 0
cannot find nm_test_var in conftest.nm
configure:5517: gcc -c -g -O2 -I/usr/local/include/SDL -Dmain=SDL_main -I/usr/include/mingw -DWIN32 -Uunix -mno-cygwin conftest.c >&5
configure:5520: $? = 0
configure:5524: /usr/bin/nm -B conftest.o \| sed -n -e 's/^.*[ 	]\([ABCDGIRSTW][ABCDGIRSTW]*\)[ 	][ 	]*\(_\)\([_A-Za-z][_A-Za-z0-9]*\)$/\1 \2\3 \3/p' \> conftest.nm
configure:5527: $? = 0
configure:5579: gcc -o conftest.exe -g -O2 -I/usr/local/include/SDL -Dmain=SDL_main -I/usr/include/mingw -DWIN32 -Uunix -mno-cygwin -lmxf -L/usr/local/lib -lmingw32 -lSDLmain -lSDL -mwindows -mno-cygwin conftest.c conftstm.o >&5
configure:5582: $? = 0
configure:5620: result: ok
configure:5624: checking for objdir
configure:5639: result: .libs
configure:5729: checking for ar
configure:5745: found /usr/bin/ar
configure:5756: result: ar
configure:5809: checking for ranlib
configure:5825: found /usr/bin/ranlib
configure:5836: result: ranlib
configure:5889: checking for strip
configure:5905: found /usr/bin/strip
configure:5916: result: strip
configure:6178: checking if gcc static flag  works
configure:6201: result: yes
configure:6219: checking if gcc supports -fno-rtti -fno-exceptions
configure:6237: gcc -c -g -O2 -I/usr/local/include/SDL -Dmain=SDL_main -I/usr/include/mingw -DWIN32 -Uunix -mno-cygwin -fno-rtti -fno-exceptions conftest.c >&5
cc1: warning: command line option "-fno-rtti" is valid for C++/ObjC++ but not for C
configure:6241: $? = 0
configure:6252: result: no
configure:6267: checking for gcc option to produce PIC
configure:6444: result: 
configure:6509: checking if gcc supports -c -o file.o
configure:6530: gcc -c -g -O2 -I/usr/local/include/SDL -Dmain=SDL_main -I/usr/include/mingw -DWIN32 -Uunix -mno-cygwin -o out/conftest2.o conftest.c >&5
configure:6534: $? = 0
configure:6554: result: yes
configure:6580: checking whether the gcc linker (/usr/i686-pc-cygwin/bin/ld.exe) supports shared libraries
configure:7427: result: yes
configure:7453: checking whether -lc should be explicitly linked in
configure:7458: gcc -c -g -O2 -I/usr/local/include/SDL -Dmain=SDL_main -I/usr/include/mingw -DWIN32 -Uunix -mno-cygwin conftest.c >&5
configure:7461: $? = 0
configure:7475: gcc -shared conftest.o  -v -o ./conftest -Wl,--image-base=0x10000000 -Wl,--out-implib,conftest 2\>\&1 \| grep  -lc  \>/dev/null 2\>\&1
configure:7478: $? = 1
configure:7490: result: yes
configure:7498: checking dynamic linker characteristics
configure:8050: result: Win32 ld.exe
configure:8054: checking how to hardcode library paths into programs
configure:8079: result: immediate
configure:8093: checking whether stripping libraries is possible
configure:8098: result: yes
configure:8921: checking if libtool supports shared libraries
configure:8923: result: yes
configure:8926: checking whether to build shared libraries
configure:8984: result: yes
configure:8987: checking whether to build static libraries
configure:8991: result: yes
configure:9083: creating libtool
configure:9630: checking for ld used by g++
configure:9697: result: /usr/i686-pc-cygwin/bin/ld.exe
configure:9706: checking if the linker (/usr/i686-pc-cygwin/bin/ld.exe) is GNU ld
configure:9721: result: yes
configure:9772: checking whether the g++ linker (/usr/i686-pc-cygwin/bin/ld.exe) supports shared libraries
configure:10598: result: yes
configure:10616: g++ -c -g -O2 -I/usr/local/include/SDL -Dmain=SDL_main -I/usr/include/mingw -DWIN32 -Uunix -mno-cygwin conftest.cc >&5
configure:10619: $? = 0
configure:10715: checking for g++ option to produce PIC
configure:10967: result: 
configure:11032: checking if g++ supports -c -o file.o
configure:11053: g++ -c -g -O2 -I/usr/local/include/SDL -Dmain=SDL_main -I/usr/include/mingw -DWIN32 -Uunix -mno-cygwin -o out/conftest2.o conftest.cc >&5
configure:11057: $? = 0
configure:11077: result: yes
configure:11103: checking whether the g++ linker (/usr/i686-pc-cygwin/bin/ld.exe) supports shared libraries
configure:11131: result: yes
configure:11202: checking dynamic linker characteristics
configure:11754: result: Win32 ld.exe
configure:11758: checking how to hardcode library paths into programs
configure:11783: result: immediate
configure:11797: checking whether stripping libraries is possible
configure:11802: result: yes
configure:13102: checking if libtool supports shared libraries
configure:13104: result: yes
configure:13107: checking whether to build shared libraries
configure:13125: result: yes
configure:13128: checking whether to build static libraries
configure:13132: result: yes
configure:13144: checking for g77 option to produce PIC
configure:13321: result: 
configure:13386: checking if g77 supports -c -o file.o
configure:13407: g77 -c -g -O2 -o out/conftest2.o conftest.f >&5
configure:13411: $? = 0
configure:13431: result: yes
configure:13457: checking whether the g77 linker (/usr/i686-pc-cygwin/bin/ld.exe) supports shared libraries
configure:14284: result: yes
configure:14355: checking dynamic linker characteristics
configure:14907: result: Win32 ld.exe
configure:14911: checking how to hardcode library paths into programs
configure:14936: result: immediate
configure:14950: checking whether stripping libraries is possible
configure:14955: result: yes
configure:19163: creating ./config.status

## ---------------------- ##
## Running config.status. ##
## ---------------------- ##

This file was extended by config.status, which was
generated by GNU Autoconf 2.59.  Invocation command line was

  CONFIG_FILES    = 
  CONFIG_HEADERS  = 
  CONFIG_LINKS    = 
  CONFIG_COMMANDS = 
  $ ./config.status 

on TheVaio

config.status:754: creating Makefile
config.status:754: creating src/Makefile
config.status:820: creating config.h
config.status:1106: executing depfiles commands

## ---------------- ##
## Cache variables. ##
## ---------------- ##

ac_cv_build=i686-pc-cygwin
ac_cv_build_alias=i686-pc-cygwin
ac_cv_c_compiler_gnu=yes
ac_cv_cxx_compiler_gnu=yes
ac_cv_env_CC_set=
ac_cv_env_CC_value=
ac_cv_env_CFLAGS_set=
ac_cv_env_CFLAGS_value=
ac_cv_env_CPPFLAGS_set=set
ac_cv_env_CPPFLAGS_value='-I/usr/local/include/SDL -Dmain=SDL_main -I/usr/include/mingw -DWIN32 -Uunix -mno-cygwin'
ac_cv_env_CPP_set=
ac_cv_env_CPP_value=
ac_cv_env_CXXCPP_set=
ac_cv_env_CXXCPP_value=
ac_cv_env_CXXFLAGS_set=
ac_cv_env_CXXFLAGS_value=
ac_cv_env_CXX_set=
ac_cv_env_CXX_value=
ac_cv_env_F77_set=
ac_cv_env_F77_value=
ac_cv_env_FFLAGS_set=
ac_cv_env_FFLAGS_value=
ac_cv_env_LDFLAGS_set=set
ac_cv_env_LDFLAGS_value='-lmxf -L/usr/local/lib -lmingw32 -lSDLmain -lSDL -mwindows -mno-cygwin'
ac_cv_env_build_alias_set=
ac_cv_env_build_alias_value=
ac_cv_env_host_alias_set=
ac_cv_env_host_alias_value=
ac_cv_env_target_alias_set=
ac_cv_env_target_alias_value=
ac_cv_exeext=.exe
ac_cv_f77_compiler_gnu=yes
ac_cv_header_dlfcn_h=no
ac_cv_header_inttypes_h=yes
ac_cv_header_memory_h=yes
ac_cv_header_stdc=yes
ac_cv_header_stdint_h=yes
ac_cv_header_stdlib_h=yes
ac_cv_header_string_h=yes
ac_cv_header_strings_h=yes
ac_cv_header_sys_stat_h=yes
ac_cv_header_sys_types_h=yes
ac_cv_header_unistd_h=yes
ac_cv_host=i686-pc-cygwin
ac_cv_host_alias=i686-pc-cygwin
ac_cv_objext=o
ac_cv_path_install='/usr/bin/install -c'
ac_cv_prog_AWK=gawk
ac_cv_prog_CPP='gcc -E'
ac_cv_prog_CXXCPP='g++ -E'
ac_cv_prog_ac_ct_AR=ar
ac_cv_prog_ac_ct_CC=gcc
ac_cv_prog_ac_ct_CXX=g++
ac_cv_prog_ac_ct_F77=g77
ac_cv_prog_ac_ct_RANLIB=ranlib
ac_cv_prog_ac_ct_STRIP=strip
ac_cv_prog_cc_g=yes
ac_cv_prog_cc_stdc=
ac_cv_prog_cxx_g=yes
ac_cv_prog_egrep='grep -E'
ac_cv_prog_f77_g=yes
ac_cv_prog_make_make_set=yes
am_cv_CC_dependencies_compiler_type=gcc3
am_cv_CXX_dependencies_compiler_type=gcc3
lt_cv_deplibs_check_method='file_magic ^x86 archive import|^x86 DLL'
lt_cv_file_magic_cmd=func_win32_libid
lt_cv_file_magic_test_file=
lt_cv_ld_reload_flag=-r
lt_cv_objdir=.libs
lt_cv_path_LD=/usr/i686-pc-cygwin/bin/ld.exe
lt_cv_path_LDCXX=/usr/i686-pc-cygwin/bin/ld.exe
lt_cv_path_NM='/usr/bin/nm -B'
lt_cv_path_SED=/usr/bin/sed
lt_cv_prog_compiler_c_o=yes
lt_cv_prog_compiler_c_o_CXX=yes
lt_cv_prog_compiler_c_o_F77=yes
lt_cv_prog_compiler_rtti_exceptions=no
lt_cv_prog_gnu_ld=yes
lt_cv_prog_gnu_ldcxx=yes
lt_cv_sys_global_symbol_pipe='sed -n -e '\''s/^.*[ 	]\([ABCDGIRSTW][ABCDGIRSTW]*\)[ 	][ 	]*\(_\)\([_A-Za-z][_A-Za-z0-9]*\)$/\1 \2\3 \3/p'\'''
lt_cv_sys_global_symbol_to_c_name_address='sed -n -e '\''s/^: \([^ ]*\) $/  {\"\1\", (lt_ptr) 0},/p'\'' -e '\''s/^[BCDEGRST] \([^ ]*\) \([^ ]*\)$/  {"\2", (lt_ptr) \&\2},/p'\'''
lt_cv_sys_global_symbol_to_cdecl='sed -n -e '\''s/^. .* \(.*\)$/extern int \1;/p'\'''
lt_cv_sys_max_cmd_len=8192
lt_lt_cv_prog_compiler_c_o='"yes"'
lt_lt_cv_prog_compiler_c_o_CXX='"yes"'
lt_lt_cv_prog_compiler_c_o_F77='"yes"'
lt_lt_cv_sys_global_symbol_pipe='"sed -n -e '\''s/^.*[ 	]\\([ABCDGIRSTW][ABCDGIRSTW]*\\)[ 	][ 	]*\\(_\\)\\([_A-Za-z][_A-Za-z0-9]*\\)\$/\\1 \\2\\3 \\3/p'\''"'
lt_lt_cv_sys_global_symbol_to_c_name_address='"sed -n -e '\''s/^: \\([^ ]*\\) \$/  {\\\"\\1\\\", (lt_ptr) 0},/p'\'' -e '\''s/^[BCDEGRST] \\([^ ]*\\) \\([^ ]*\\)\$/  {\"\\2\", (lt_ptr) \\&\\2},/p'\''"'
lt_lt_cv_sys_global_symbol_to_cdecl='"sed -n -e '\''s/^. .* \\(.*\\)\$/extern int \\1;/p'\''"'

## ----------------- ##
## Output variables. ##
## ----------------- ##

ACLOCAL='aclocal-1.9'
AMDEPBACKSLASH='\'
AMDEP_FALSE='#'
AMDEP_TRUE=''
AMTAR='tar'
AR='ar'
AUTOCONF='autoconf'
AUTOHEADER='autoheader'
AUTOMAKE='automake-1.9'
AWK='gawk'
CC='gcc'
CCDEPMODE='depmode=gcc3'
CFLAGS='-g -O2'
CPP='gcc -E'
CPPFLAGS='-I/usr/local/include/SDL -Dmain=SDL_main -I/usr/include/mingw -DWIN32 -Uunix -mno-cygwin'
CXX='g++'
CXXCPP='g++ -E'
CXXDEPMODE='depmode=gcc3'
CXXFLAGS='-g -O2'
CYGPATH_W='cygpath -w'
DEFS='-DHAVE_CONFIG_H'
DEPDIR='.deps'
ECHO='echo'
ECHO_C=''
ECHO_N='-n'
ECHO_T=''
EGREP='grep -E'
EXEEXT='.exe'
F77='g77'
FFLAGS='-g -O2'
INSTALL_DATA='${INSTALL} -m 644'
INSTALL_PROGRAM='${INSTALL}'
INSTALL_SCRIPT='${INSTALL}'
INSTALL_STRIP_PROGRAM='${SHELL} $(install_sh) -c -s'
LDFLAGS='-lmxf -L/usr/local/lib -lmingw32 -lSDLmain -lSDL -mwindows -mno-cygwin'
LIBOBJS=''
LIBS=''
LIBTOOL='$(SHELL) $(top_builddir)/libtool'
LN_S='ln -s'
LTLIBOBJS=''
MAKEINFO='makeinfo'
OBJEXT='o'
PACKAGE='lostalgo'
PACKAGE_BUGREPORT=''
PACKAGE_NAME=''
PACKAGE_STRING=''
PACKAGE_TARNAME=''
PACKAGE_VERSION=''
PATH_SEPARATOR=':'
RANLIB='ranlib'
SET_MAKE=''
SHELL='/bin/sh'
STRIP='strip'
VERSION='0.1'
ac_ct_AR='ar'
ac_ct_CC='gcc'
ac_ct_CXX='g++'
ac_ct_F77='g77'
ac_ct_RANLIB='ranlib'
ac_ct_STRIP='strip'
am__fastdepCC_FALSE='#'
am__fastdepCC_TRUE=''
am__fastdepCXX_FALSE='#'
am__fastdepCXX_TRUE=''
am__include='include'
am__leading_dot='.'
am__quote=''
am__tar='${AMTAR} chof - "$$tardir"'
am__untar='${AMTAR} xf -'
bindir='${exec_prefix}/bin'
build='i686-pc-cygwin'
build_alias=''
build_cpu='i686'
build_os='cygwin'
build_vendor='pc'
datadir='${prefix}/share'
exec_prefix='${prefix}'
host='i686-pc-cygwin'
host_alias=''
host_cpu='i686'
host_os='cygwin'
host_vendor='pc'
includedir='${prefix}/include'
infodir='${prefix}/info'
install_sh='/cygdrive/c/Programming Shared Docs/pysche-lost/lostalgo/install-sh'
libdir='${exec_prefix}/lib'
libexecdir='${exec_prefix}/libexec'
localstatedir='${prefix}/var'
mandir='${prefix}/man'
mkdir_p='mkdir -p --'
oldincludedir='/usr/include'
prefix='/usr/local'
program_transform_name='s,x,x,'
sbindir='${exec_prefix}/sbin'
sharedstatedir='${prefix}/com'
sysconfdir='${prefix}/etc'
target_alias=''

## ----------- ##
## confdefs.h. ##
## ----------- ##

#define HAVE_INTTYPES_H 1
#define HAVE_MEMORY_H 1
#define HAVE_STDINT_H 1
#define HAVE_STDLIB_H 1
#define HAVE_STRINGS_H 1
#define HAVE_STRING_H 1
#define HAVE_SYS_STAT_H 1
#define HAVE_SYS_TYPES_H 1
#define HAVE_UNISTD_H 1
#define PACKAGE "lostalgo"
#define PACKAGE_BUGREPORT ""
#define PACKAGE_NAME ""
#define PACKAGE_STRING ""
#define PACKAGE_TARNAME ""
#define PACKAGE_VERSION ""
#define STDC_HEADERS 1
#define VERSION "0.1"
#endif
#ifdef __cplusplus
extern "C" void std::exit (int) throw (); using std::exit;

configure: exit 0
